{
  "name": "S06-tanavatuubid",
  "title": "Типы улиц Таллинна",
  "year": "2035",
  "caption": "",
  "maxBounds": [
    [24.4, 59.25],
    [25.145, 59.65]
  ],
  "clickRadius": 1,
  "sources": [
    "S06-tanavatuubid-local.geojson",
    "S06-tanavatuubid-town_square.geojson",
    "S06-tanavatuubid-city_place.geojson",
    "S06-tanavatuubid-city_street.geojson",
    "S06-tanavatuubid-high_street.geojson",
    "S06-tanavatuubid-connector.geojson",
    "S06-tanavatuubid-city_hub.geojson",
    "S06-tanavatuubid-high_road.geojson",
    "S06-tanavatuubid-core_road.geojson"
  ],
  "popup": {
    "template": "{% for data in sources | uniqueBy('nimi_ru') %}{% if data.nimi_ru and data.nimi_ru !== 'null' %}<b>{{data.nimi_ru}}</b>{% endif %}{%endfor%}",
    "color": "{% for data in sources | uniqueBy('nimi_ru') %}{% if data.nimi_ru and data.nimi_ru !== 'null' %}{{colors[data.nimi_ru]}}{% endif %}{%endfor%}",
    "data": {
      "colors": {
        "Общегородское место": "#D42D39",
        "Общегородская улица": "#F1823F",
        "Общегородская дорога": "#F3D03E",
        "Региональное место": "#6B2CC4",
        "Региональная улица": "#9A65E5",
        "Региональная дорога": "#C9ADF1",
        "Локальное место": "#00752C",
        "Местная улица": "#40B16B",
        "Местная дорога": "#AFE5B0"
      }
    }
  },
  "legend": [
    [
      {
        "slug": "Ülelinnaline",
        "icon": "streets_large",
        "text": "Общегородской",
        "toggle": "Ülelinnaline",
        "checked": true
      },
      {
        "slug": "Piirkondlik",
        "icon": "streets_medium",
        "text": "Региональный",
        "toggle": "Piirkondlik",
        "checked": true
      },
      {
        "slug": "Kohalik",
        "icon": "streets_small",
        "text": "Местный",
        "toggle": "Kohalik",
        "checked": true
      }
    ]
  ]
}
