{
"type": "FeatureCollection",
"name": "S00-linnaosade-areng-arendusobjekt",
"crs": { "type": "name", "properties": { "name": "urn:ogc:def:crs:OGC:1.3:CRS84" } },
"features": [
{ "type": "Feature", "properties": { "OBJECTID": 1, "id": 1, "uuid": "vULNQc2GPaiaYmdBSoMvmu", "nimi_et": "Uus Stroomi rannahoone", "nimi_en": "New Stroomi beach house", "nimi_ru": "Обновляемое пляжное здание Штромки", "kirjeldus_et": "Silmapaistva arhitektuuriga uus rannahoone elavdab Stroomi randa ja parki aasta ringi. Kuursaali tüüpi hoonest leiab rannalisele vajaliku: hoiukapid, tualetid, müügikioskid, söögikohad, vetelpääste, sauna ja kogukonnaruumid. Hoone kontseptsioon leitakse arhitektuurivõistlusega.", "kirjeldus_en": "A beach house with remarkable architecture will be built on Stroomi beach. The main functions of the building are a café and restaurant whose flexible spatial planning facilitates hosting events and renting out rooms for various activities. Modernising the beach house helps to support the year-round use of the beach and park.", "kirjeldus_ru": "На пляже Штромка будет построено пляжное здание типа курзала с необычной архитектурой. Центральными функциями здания станут кафе и ресторан, гибкая пространственная программа которых позволит организовывать там мероприятия, а также арендовать помещение для различной деятельности. Модернизация пляжного здания поможет повысить круглогодичное посещение пляжа и парка.", "kirjeldus": null }, "geometry": { "type": "Point", "coordinates": [ 24.684541000128608, 59.442321999914867 ] } },
{ "type": "Feature", "properties": { "OBJECTID": 2, "id": 4, "uuid": "1X6rvs93wroAWGMVjhpfbz", "nimi_et": "Nõmme spordikeskus", "nimi_en": "Nõmme sports centre", "nimi_ru": "Спортивный центр Нымме", "kirjeldus_et": "Spordikeskuse ala täiendatakse uute spordi- ja puhkerajatistega.", "kirjeldus_en": "The establishments and infrastructure dedicated to offering leisure and recreational activities will be upgraded.", "kirjeldus_ru": "Усовершенствование построек и инфраструктуры, необходимых для обеспечения отдыха и рекреационной деятельности.", "kirjeldus": null }, "geometry": { "type": "Point", "coordinates": [ 24.666512999949127, 59.380062000227028 ] } },
{ "type": "Feature", "properties": { "OBJECTID": 3, "id": 9, "uuid": "3rHbYcMYwKB5cwp6D8CSno", "nimi_et": "Harku järve promenaad ja välibassein", "nimi_en": "Harku lake promenade and outdoor swimming oool", "nimi_ru": "Променад озера Харку и открытый бассейн", "kirjeldus_et": "Harku järve äärde rajatakse promenaad ja välibassein.", "kirjeldus_en": "A promenade and swimming pool by Harku Lake.", "kirjeldus_ru": "Для горожан откроется променад возле озера Харку и открытый бассейн.", "kirjeldus": null }, "geometry": { "type": "Point", "coordinates": [ 24.631701000070368, 59.414761000154463 ] } },
{ "type": "Feature", "properties": { "OBJECTID": 4, "id": 10, "uuid": "3HAVfkikL6LqQKRRCyx6Ep", "nimi_et": "Uuenev Värsi garaažide ala", "nimi_en": "Developing the area of Värsi garages", "nimi_ru": "Обновляемая зона гаражей Вярси", "kirjeldus_et": "Ala korrastatakse ja võetakse tulevikus kasutusele avalikul otstarbel. Tänu raudteeäärsele asukohale on see hästi ligipääsetav.", "kirjeldus_en": "Area will be tidied up and reserved for a public function. Since it is located near the railway, it is easy to provide access to the area with public transport.", "kirjeldus_ru": "Зона будет приведена в порядок и зарезервирована для общественного пользования. Расположение зоны у железной дороги позволяет обеспечить удобный подход к общественному транспорту.", "kirjeldus": null }, "geometry": { "type": "Point", "coordinates": [ 24.646647999810877, 59.372875000022773 ] } },
{ "type": "Feature", "properties": { "OBJECTID": 5, "id": 11, "uuid": "eKRuqTbvbeUv1TywL1g2P7", "nimi_et": "Viljandi maantee ja Tervise tänava ühendus", "nimi_en": "Viljandi road and Tervise street multi-level junction", "nimi_ru": "Многоуровневый перекресток на отрезке Вильяндиского шоссе и улицы Тервизе", "kirjeldus_et": "Põhimagistraalide (Tammsaare tee, Järvevana tee ja Tehnika tänava) liikluskoormuse leevendamiseks ja ümbersõiduvõimaluse loomiseks ühendatakse Viljandi maantee Pärnu maantee ristmiku kaudu Tervise tänavaga. Raudteega ristumised lahendatakse tunnelitega.", "kirjeldus_en": "Viljandi road will be connected with Tervise street via Pärnu road to alleviate the traffic load of the existing main roads (Tammsaare road, Järvevana road, Tehnika street) and create an option for a detour. The railway intersections will be solved using tunnels.", "kirjeldus_ru": "Для уменьшения загруженности имеющихся основных магистралей (Таммсааре теэ, Ярвевана теэ, улица Техника) и создания возможности объезда Вильяндиское шоссе будет соединено с улицей Тервизе через Пярнуское шоссе. Пересечения с железной дорогой будут разрешены за счет туннелей.", "kirjeldus": null }, "geometry": { "type": "Point", "coordinates": [ 24.719265537336366, 59.395019352729804 ] } },
{ "type": "Feature", "properties": { "OBJECTID": 6, "id": 14, "uuid": "meybZnTLhFL3btWwe7UBuK", "nimi_et": "Raku järve puhkeala", "nimi_en": "Raku lake recreation Area", "nimi_ru": "Зона отдыха на озере Раку", "kirjeldus_et": "Praegune metsistunud tehismaastik korrastatakse, säilitades ala loodusliku väärtuse. Siia tekib mitmekesine puhkeala, kus saab ujuda, päevitada, kala püüda, koeri ujutada, kummipaadiga sõita, seenel käia, lõket teha, suusatada ja kelgutada ning harrastada ka jäärajasõitu.", "kirjeldus_en": "Turning the area near Raku Lake into a recreation area with supporting infrastructure.", "kirjeldus_ru": "Преобразование прибрежной зоны вокруг озера Раку в зону отдыха со строительством сопутствующей инфраструктуры.", "kirjeldus": null }, "geometry": { "type": "Point", "coordinates": [ 24.724664999692127, 59.360671000080139 ] } },
{ "type": "Feature", "properties": { "OBJECTID": 7, "id": 18, "uuid": "1ZEq1hQbTZ1iYyzBsLEmGp", "nimi_et": "Kopli tn 93 kogukonnakeskus ", "nimi_en": "Kopli chamber of culture", "nimi_ru": "Культурный центр Kopli Kultuurikoda", "kirjeldus_et": "Endine Kopli rahvamaja on juba saanud uue elu parandustöökoja, permakultuuriaiandus- ja isetegemiskeskusena. Lähiaastatel arendatakse kogukonnakeskust linna ja kogukondade koostöös edasi. ", "kirjeldus_en": "The former Kopli Chamber of Culture will become a multi-functional community, family and culture centre with a cinema and theatre hall, studios, workshops and DIY tools.", "kirjeldus_ru": "На месте некогда существовавшего Коплиского дома культуры будет возведен многофункциональный общинный, семейный и культурный центр с кино- и театральным залом, студиями, мастерскими и другими необходимыми для самодеятельности средствами.", "kirjeldus": null }, "geometry": { "type": "Point", "coordinates": [ 24.670899000069319, 59.459464000035069 ] } },
{ "type": "Feature", "properties": { "OBJECTID": 8, "id": 19, "uuid": "pGwrAxQZrVYE6P8FcmkMty", "nimi_et": "Uus Kullo huvikeskus, noortekeskus ja raamatukogu", "nimi_en": "Developing Kullo hobby school, youth centre and library", "nimi_ru": "Обновляемый центр занятий по интересам «Кулло»", "kirjeldus_et": "Legendaarse Kullo huvikeskuse uuest hoonest saab piirkonna maamärk ja kultuurielu süda. Siin leiavad uue kodu mitmesugused huviringid, Kristiine noortekeskus ja linnaosa raamatukogu. Atraktiivsed välialad täiendavad õues viibimise võimalusi Löwenruh' pargis. Huvikeskuse hoone kontseptsiooni loomiseks on läbitud teenusedisainiprotsess ja arhitektuurivõistlus.", "kirjeldus_en": "The legendary Kullo Hobby School will be reconstructed into a modern hobby centre.", "kirjeldus_ru": "Легендарный центр занятий по интересам «Кулло» будет перестроен в современный центр образования по интересам.", "kirjeldus": null }, "geometry": { "type": "Point", "coordinates": [ 24.695766000270936, 59.418329999852645 ] } },
{ "type": "Feature", "properties": { "OBJECTID": 9, "id": 20, "uuid": "9HNUT6XFuygcX6xADTcdro", "nimi_et": "Uuenev Õismäe keskuseala", "nimi_en": "Developing Õismäe centre area", "nimi_ru": "Обновляемая зона центра Ыйсмяэ", "kirjeldus_et": "Õismäe keskuseala muutub mitmekesisemaks. Siia rajatakse uusi ühiskondlikke hooneid ja ärihooneid, samuti parandatakse keskuseala sidusust ümbritseva elamualaga ning selle avaliku ruumi kvaliteeti.", "kirjeldus_en": "The function of the hub will be strengthened by increasing the quality of the public space and establishing new public and business buildings.", "kirjeldus_ru": "Усиление функции центра за счет улучшения качества общественного пространства и возведения новых общественных и коммерческих зданий.", "kirjeldus": null }, "geometry": { "type": "Point", "coordinates": [ 24.657277000101537, 59.413626000058173 ] } },
{ "type": "Feature", "properties": { "OBJECTID": 10, "id": 21, "uuid": "x2H1Z5fE4equmrBkdEbz99", "nimi_et": "Uuenev Nõmme keskus", "nimi_en": "Developing Nõmme centre", "nimi_ru": "Обновляемый центр Нымме", "kirjeldus_et": "Korrastatakse avalikku ruumi ja muudetakse keskuseala aktiivsemaks. Kavandatakse paremad ja ohutumad liikumisvõimalused jalakäijatele ja jalgratturitele, uuendatakse kogu ristmiku ala, suurendatakse jalakäijate ala ja kavandatakse purskkaevuga linnaväljak. Suurendatakse ühistranspordi kasutusmugavust uute ootekodade paigaldamise ja nende asukohtade parandamise teel.", "kirjeldus_en": "Public space will be tidied up and the hub activated. Better and safer options will be designed for pedestrians and cyclists, renewing the entire intersection, increasing the areas for pedestrians and creating an urban square with a fountain. User comfort of public transport will be increased with new bus pavilions in better locations.", "kirjeldus_ru": "Планируется привести в порядок общественное пространство и за счет этого активизировать зону вокруг центра. В программу входит разработка лучших и более безопасных возможностей для передвижения пешеходов и велосипедистов, реконструкция всей зоны перекрестка, расширение зон для пешеходов, строительство городской площади с фонтаном. Планируется также повысить удобство использования общественного транспорта путем строительства новых автобусных павильонов и оптимизации мест их расположения.", "kirjeldus": null }, "geometry": { "type": "Point", "coordinates": [ 24.683786000268288, 59.388183000208869 ] } },
{ "type": "Feature", "properties": { "OBJECTID": 11, "id": 23, "uuid": "26T9fDC2ZHSKnfLVi9veKn", "nimi_et": "Täienev Nõmme-Mustamäe maastikukaitseala puhketaristu", "nimi_en": "Improving the Nõmme-Mustamäe landscape conservation area's recreational Infrastructure", "nimi_ru": "Дополняющаяся инфраструктура для отдыха МKA", "kirjeldus_et": "Maastikukaitseala puhketaristut täiendatakse uute puhke- ja sportimisvõimalustega looduskeskkonda väärtustaval viisil.", "kirjeldus_en": "Upgrading establishments and infrastructure dedicated to offering leisure and recreational activities.", "kirjeldus_ru": "Усовершенствование построек и инфраструктуры, необходимых для обеспечения отдыха и рекреационной деятельности.", "kirjeldus": null }, "geometry": { "type": "Point", "coordinates": [ 24.67905100016862, 59.390784999934603 ] } },
{ "type": "Feature", "properties": { "OBJECTID": 12, "id": 24, "uuid": "diKfp16XPK4za4mFzYwYDh", "nimi_et": "Pääsküla raba puhketaristu täiendamine", "nimi_en": "Upgrading the recreational infrastructure in Pääsküla bog", "nimi_ru": "Усовершенствование инфраструктуры для отдыха в окрестностях болота Пяэскюла.", "kirjeldus_et": "Pääsküla raba puhketaristut täiendatakse uute puhke- ja sportimisvõimalustega looduskeskkonda väärtustaval viisil.", "kirjeldus_en": "Upgrading establishments and infrastructure dedicated to offering leisure and recreational activities.", "kirjeldus_ru": "Усовершенствование построек и инфраструктуры, необходимых для обеспечения отдыха и рекреационной деятельности.", "kirjeldus": null }, "geometry": { "type": "Point", "coordinates": [ 24.681648000010618, 59.367642000087564 ] } },
{ "type": "Feature", "properties": { "OBJECTID": 13, "id": 25, "uuid": "deVphTc5VGqchVnQbW7PJD", "nimi_et": "Pirita spordikeskus", "nimi_en": "Pirita sports centre", "nimi_ru": "Спортивный центр Пирита", "kirjeldus_et": "Spordikeskuse juurde lisandub uusi rajatisi ja tegevusvõimalusi. ", "kirjeldus_en": "Designing establishments and infrastructure dedicated to offering leisure and recreational activities.", "kirjeldus_ru": "Проектирование построек и инфраструктуры, необходимых для обеспечения отдыха и рекреационной деятельности.", "kirjeldus": null }, "geometry": { "type": "Point", "coordinates": [ 24.833991059425919, 59.463681720940279 ] } },
{ "type": "Feature", "properties": { "OBJECTID": 14, "id": 26, "uuid": "txqthuLRB9aKHj2TAWB3Rg", "nimi_et": "Uuenev Linda kultuurikeskus", "nimi_en": "The renewing Linda cultural centre", "nimi_ru": "Обновляемый культурный центр «Линда»", "kirjeldus_et": "Kultuurikeskus rekonstrueeritakse.", "kirjeldus_en": "The reconstruction of the cultural centre", "kirjeldus_ru": "Реконструкция культурного центра", "kirjeldus": null }, "geometry": { "type": "Point", "coordinates": [ 24.836296999725924, 59.44143600001815 ] } },
{ "type": "Feature", "properties": { "OBJECTID": 15, "id": 28, "uuid": "2V2bN1a576y7r7ns3tkxip", "nimi_et": "Täienev Harku metsa puhketaristu ", "nimi_en": "Improving Harku forest’s recreational infrastructure", "nimi_ru": "Дополняющаяся инфраструктура для отдыха в лесу Харку", "kirjeldus_et": "Harku metsa puhketaristut täiendatakse uute puhke- ja sportimisvõimalustega looduskeskkonda väärtustaval viisil.", "kirjeldus_en": "Upgrading establishments and infrastructure dedicated to offering leisure and recreational activities.", "kirjeldus_ru": "Усовершенствование построек и инфраструктуры, необходимых для обеспечения отдыха и рекреационной деятельности.", "kirjeldus": null }, "geometry": { "type": "Point", "coordinates": [ 24.625426000112828, 59.384431000222435 ] } },
{ "type": "Feature", "properties": { "OBJECTID": 16, "id": 29, "uuid": "m8ipTB3J7Qk5j5cRW27Qcb", "nimi_et": "Kergliiklustunnel", "nimi_en": "Bike and pedestrian tunnel", "nimi_ru": "Туннель для легких средств передвижения", "kirjeldus_et": "Jalakäija- ja rattatunnel ühendab Wismari tänava Madara tänavaga. Nii tekib Kristiine elanikele otsetee kesklinna ja väheneb raudteetammi katkestav mõju.", "kirjeldus_en": "Establishing a connection between Wismari Street and Madara Street", "kirjeldus_ru": "Создание сообщения между улицами Висмари и Мадара.", "kirjeldus": null }, "geometry": { "type": "Point", "coordinates": [ 24.723252999880774, 59.431491000137818 ] } },
{ "type": "Feature", "properties": { "OBJECTID": 17, "id": 30, "uuid": "4WD1exjjEke5pGqb85c9yd", "nimi_et": "Kergliiklustunnel", "nimi_en": "Bike and pedestrian tunnel", "nimi_ru": "Туннель для легких средств передвижения", "kirjeldus_et": "Jalakäija- ja rattatunnel ühendab Tedre tänava Marta tänavaga. Nii tekib Kristiine elanikele otsetee kesklinna ja väheneb raudteetammi katkestav mõju.", "kirjeldus_en": "A railway tunnel for cyclists and pedestrians that connects Tedre Street and Marta Street", "kirjeldus_ru": "Железнодорожный туннель для велосипедистов и пешеходов, соединяющий улицы Тедре и Марта.", "kirjeldus": null }, "geometry": { "type": "Point", "coordinates": [ 24.73303199987657, 59.415166999901928 ] } },
{ "type": "Feature", "properties": { "OBJECTID": 18, "id": 31, "uuid": "u1T2KcfbfCJtVmU7WXjQWY", "nimi_et": "Kergliiklustunnel", "nimi_en": "Bike and pedestrian tunnel", "nimi_ru": "Туннель для легких средств передвижения", "kirjeldus_et": "Jalgpalli tänavat Tehnika tänavaga ühendav veeviimar ehitatakse ümber avaraks jalakäija- ja rattatunneliks, et Lilleküla staadioni publikul oleks mugavam staadionile saabuda ja sealt lahkuda ning paraneks ala sidusus ümbritseva linnaga.", "kirjeldus_en": "Improving the connection between Tehnika street and Jalgpalli street (Lilleküla stadium).", "kirjeldus_ru": "Налаживание сообщения между улицами Техника и Ялгпалли (стадион Лиллекюла)", "kirjeldus": null }, "geometry": { "type": "Point", "coordinates": [ 24.731661999898012, 59.423044999849289 ] } },
{ "type": "Feature", "properties": { "OBJECTID": 19, "id": 32, "uuid": "7rsYQnUYK3CAt2kXHHnV2x", "nimi_et": "Tõnismäe riigigümnaasium", "nimi_en": "Tõnismäe gtate gymnasium", "nimi_ru": "Государственная гимназия Эндла", "kirjeldus_et": "Endla tn 13 kinnistule ehitatakse uus koolihoone, seda toetavad välialad ja spordirajatised Tõnismäe riigigümnaasiumile.", "kirjeldus_en": "A new state gymnasium on Endla street 13 in the City Centre.", "kirjeldus_ru": "По адресу ул. Эндла, 13, планируется построить новую государственную гимназию в Кесклинне.", "kirjeldus": null }, "geometry": { "type": "Point", "coordinates": [ 24.735956999781603, 59.429767000175353 ] } },
{ "type": "Feature", "properties": { "OBJECTID": 20, "id": 33, "uuid": null, "nimi_et": "Kakumäe rand ja rannahooned", "nimi_en": "Kakumäe beach and facilities", "nimi_ru": "Пляж Какумяэ и пляжные здания", "kirjeldus_et": "Kakumäe randa kavandatavad rannahooned on mõeldud nii kohalikele elanikele kui ka surfaritele. Hoonest leiab rannalisele vajaliku: tualetid, hoiukapid, müügikioskid, vetelpääste ja kogukonnaruumid. Väliruumi lisanduvad jalgrattaparklad, mängualad ja trikirada (pump-track). ", "kirjeldus_en": "The buildings planned for Kakumäe beach are intended for both local residents and surfers. The buildings will provide all the necessary facilities for beach-goers: toilets, lockers, stalls, lifeguard and community spaces. The outdoor space will also include bicycle parking, play areas and a pump-track. ", "kirjeldus_ru": "Пляжные здания, запланированные на пляже Какумяэ, предназначены как для местных жителей, так и для серфингистов. Здесь будут созданы все необходимые условия для отдыхающих на пляже: туалеты, камеры хранения, торговые киоски, водно-спасательная служба и общественные помещения. В наружном пространстве добавятся велосипедные парковки, игровые площадки и памп-трек. ", "kirjeldus": null }, "geometry": { "type": "Point", "coordinates": [ 24.575009406756116, 59.448554241483791 ] } },
{ "type": "Feature", "properties": { "OBJECTID": 22, "id": 35, "uuid": null, "nimi_et": "Lilleküla ringmajanduskeskus", "nimi_en": "Lilleküla circular economy centre", "nimi_ru": "Лиллекюлаский центр экономики замкнутого цикла", "kirjeldus_et": "Tallinna ringmajanduskeskused on uut tüüpi kogukonnahooned kordus- ja taaskasutuskultuuri edendamiseks. Siia tulevad õppeklassid ja töökojad, et anda inimestele oskused ja võimalus asju parandada. Ringmajanduskeskuste juurde kuuluvad mitmekesised välialad ja materjalipank.", "kirjeldus_en": "Tallinn's circular economy centres are a new type of community building to promote a culture of re-use and recycling. Classrooms and workshops will give people the skills and opportunity to fix things. Circular economy centres include diverse outdoor areas and a materials bank.", "kirjeldus_ru": "Таллиннские центры экономики замкнутого цикла – это новый тип общественных зданий, способствующих развитию культуры повторного использования и переработки. Здесь появятся учебные классы и мастерские, чтобы дать людям навыки и возможность производить ремонт разных вещей. Центры экономики замкнутого цикла включают в себя разнообразные открытые площадки и банк материалов.", "kirjeldus": null }, "geometry": { "type": "Point", "coordinates": [ 24.68315208612173, 59.423102946166374 ] } },
{ "type": "Feature", "properties": { "OBJECTID": 23, "id": 36, "uuid": null, "nimi_et": "Haabersti ringmajanduskeskus", "nimi_en": "Haabersti circular economy centre", "nimi_ru": "Центр экономики замкнутого цикла в Хааберсти", "kirjeldus_et": "Tallinna ringmajanduskeskused on uut tüüpi kogukonnahooned kordus- ja taaskasutuskultuuri edendamiseks. Siia tulevad õppeklassid ja töökojad, et anda inimestele oskused ja võimalus asju parandada. Ringmajanduskeskuste juurde kuuluvad mitmekesised välialad ja materjalipank. Haabersti ringmajanduskeskuse hoone arhitektuurilahendus leitakse arhitektuurikonkursiga.", "kirjeldus_en": "Tallinn's circular economy centres are a new type of community building to promote a culture of re-use and recycling. Classrooms and workshops will give people the skills and opportunity to fix things. Circular economy centres include diverse outdoor areas and a materials bank. The design for the Haabersti circular economy centre will be found through an architectural competition.", "kirjeldus_ru": "Таллиннские центры экономики замкнутого цикла – это новый тип общественных зданий, способствующих развитию культуры повторного использования и переработки. Здесь появятся учебные классы и мастерские, чтобы дать людям навыки и возможность производить ремонт разных вещей. Центры экономики замкнутого цикла включают в себя разнообразные открытые площадки и банк материалов. Архитектурное решение для здания Центра экономики замкнутого цикла в Хааберсти будет найдено в ходе архитектурного конкурса.", "kirjeldus": null }, "geometry": { "type": "Point", "coordinates": [ 24.646609333626078, 59.407032240181906 ] } },
{ "type": "Feature", "properties": { "OBJECTID": 24, "id": 37, "uuid": null, "nimi_et": "Lasnamäe ringmajanduskeskus", "nimi_en": "Lasnamäe circular economy centre", "nimi_ru": "Ласнамяэский центр экономики замкнутого цикла", "kirjeldus_et": "Tallinna ringmajanduskeskused on uut tüüpi kogukonnahooned kordus- ja taaskasutuskultuuri edendamiseks. Siia tulevad õppeklassid ja töökojad, et anda inimestele oskused ja võimalus asju parandada. Ringmajanduskeskuste juurde kuuluvad mitmekesised välialad ja materjalipank.", "kirjeldus_en": "Tallinn's circular economy centres are a new type of community building to promote a culture of re-use and recycling. Classrooms and workshops will give people the skills and opportunity to fix things. Circular Economy Centres include diverse outdoor areas and a materials bank.", "kirjeldus_ru": "Таллиннские центры экономики замкнутого цикла – это новый тип общественных зданий, способствующих развитию культуры повторного использования и переработки. Здесь появятся учебные классы и мастерские, чтобы дать людям навыки и возможность производить ремонт разных вещей. Центры экономики замкнутого цикла включают в себя разнообразные открытые площадки и банк материалов.", "kirjeldus": null }, "geometry": { "type": "Point", "coordinates": [ 24.848736211315313, 59.43597446230126 ] } },
{ "type": "Feature", "properties": { "OBJECTID": 25, "id": 38, "uuid": null, "nimi_et": "Kergliiklustunnel", "nimi_en": "Bike and pedestrian tunnel", "nimi_ru": "Велосипедно-пешеходный тоннель", "kirjeldus_et": "Raudtee alt kulgev kergliiklustunnel muudab jalakäijate ja jalgratturite liikumistee lühemaks ja sujuvamaks ning vähendab raudtee katkestavat mõju.", "kirjeldus_en": "A bike and pedestrian tunnel under the railway will shorten and streamline the routes for walking and cycling and reduce the disruptive effects of the railway.", "kirjeldus_ru": "Велосипедной-пешеходный тоннель под железной дорогой сократит и упростит маршрут для пешеходов и велосипедистов и уменьшит прерывание движения, связанное с железной дорогой.", "kirjeldus": null }, "geometry": { "type": "Point", "coordinates": [ 24.729861268520491, 59.422132605318261 ] } },
{ "type": "Feature", "properties": { "OBJECTID": 26, "id": 39, "uuid": null, "nimi_et": "Kergliiklustunnel", "nimi_en": "Bike and pedestrian tunnel", "nimi_ru": "Велосипедно-пешеходный тоннель", "kirjeldus_et": "Raudtee alt kulgev kergliiklustunnel muudab jalakäijate ja jalgratturite liikumistee lühemaks ja sujuvamaks ning vähendab raudtee katkestavat mõju.", "kirjeldus_en": "A bike and pedestrian tunnel under the railway will shorten and streamline the routes for walking and cycling and reduce the disruptive effects of the railway.", "kirjeldus_ru": "Велосипедной-пешеходный тоннель под железной дорогой сократит и упростит маршрут для пешеходов и велосипедистов и уменьшит прерывание движения, связанное с железной дорогой.", "kirjeldus": null }, "geometry": { "type": "Point", "coordinates": [ 24.753262470605016, 59.416871528577104 ] } },
{ "type": "Feature", "properties": { "OBJECTID": 28, "id": 41, "uuid": null, "nimi_et": "Westholmi gümnaasiumi juurdeehitis", "nimi_en": "Westholm gymnasium extension", "nimi_ru": "Здание пристройки к гимназии Вестхольма", "kirjeldus_et": "Õppehoone juurdeehitis leevendab koolikohtade puudust Kesklinnas ning ajakohastab kooli õpitingimusi. Uut, arhitektuurilt kõrgetasemelist õppehoonet täiendavad mitmekesised väliõppealad.", "kirjeldus_en": "The extension will alleviate the shortage of school places in the city centre and modernise the school's learning facilities. The new, architecturally advanced building will be complemented by a variety of outdoor learning areas.", "kirjeldus_ru": "Пристройка к учебному зданию позволит решить проблему нехватки учебных мест в районе Кесклинн и модернизировать условия для учебы. Новое учебное здание на высоком архитектурном уровне будет дополнено разнообразными площадками для обучения на открытом воздухе.", "kirjeldus": null }, "geometry": { "type": "Point", "coordinates": [ 24.730412403811915, 59.434010484344434 ] } },
{ "type": "Feature", "properties": { "OBJECTID": 29, "id": 42, "uuid": null, "nimi_et": "Eesti Rahvusringhäälingu uus telemaja", "nimi_en": "New television complex of Estonian National Broadcasting", "nimi_ru": "Новый теледом Эстонского национального телерадиовещания", "kirjeldus_et": "Uus hoone loob tänapäevase töökeskkonna ja tehnoloogilised võimalused kõigile rahvusringhäälingu tegevustele. Hoone arhitektuurilahendus leiti arhitektuurivõistlusega.", "kirjeldus_en": "The new building will provide a modern working environment and technological facilities for all public broadcasting activities. The design for the building was conceived through an architectural competition.", "kirjeldus_ru": "Новое здание обеспечит современную рабочую среду и технологические возможности для всех видов деятельности национального телерадиовещания. Архитектурное решение здания было найдено в результате архитектурного конкурса.", "kirjeldus": null }, "geometry": { "type": "Point", "coordinates": [ 24.768195635391823, 59.435005799621202 ] } },
{ "type": "Feature", "properties": { "OBJECTID": 30, "id": 43, "uuid": null, "nimi_et": "Uuenev rahvusraamatukogu koos välialadega", "nimi_en": "The renewing national library and outdoor areas", "nimi_ru": "Обновляющаяся Национальная библиотека с открытыми площадками", "kirjeldus_et": "Rahvusraamatukogu välialad loovad hoone ümber esindusliku ja ajaloolist pärandit rõhutava avaliku ruumi, mis pakub meeldivat ja turvalist olemist ning raamatukoguga seotud tegevusvõimalusi igas vanuses inimesele igal aastaajal. Välialade arhitektuurilahendus leiti arhitektuurivõistlusega.", "kirjeldus_en": "The outdoor areas of the National Library will create an attractive public space around the building, highlighting its historical heritage and offering a pleasant and safe environment for library-related activities for people of all ages, during all seasons. The design for the outdoor areas was conceived through an architectural competition.", "kirjeldus_ru": "Открытые площадки Национальной библиотеки создадут репрезентативное общественное пространство вокруг здания, подчеркивая историческое наследие и предлагая приятную и безопасную среду пребывания и связанные с библиотекой возможности занятий для людей любого возраста в любое время года. Архитектурное решение для открытых площадок было найдено в результате архитектурного конкурса.", "kirjeldus": null }, "geometry": { "type": "Point", "coordinates": [ 24.739096060134017, 59.430441030014059 ] } },
{ "type": "Feature", "properties": { "OBJECTID": 31, "id": 44, "uuid": null, "nimi_et": "Sõle spordikompleks", "nimi_en": "Sõle sports complex", "nimi_ru": "Спортивный центр Сыле", "kirjeldus_et": "Sõle spordikompleksi arendatakse edasi ja täiendatakse uute vabaajategevus- ja sportimisvõimalustega.", "kirjeldus_en": "The Sõle sports complex will be further developed and complemented with new leisure and sports facilities.", "kirjeldus_ru": "Спортивный центр Сыле будет продолжать развиваться и дополняться новыми возможностями для активного проведения досуга и занятий спортом.", "kirjeldus": null }, "geometry": { "type": "Point", "coordinates": [ 24.707797248262263, 59.44252984910311 ] } },
{ "type": "Feature", "properties": { "OBJECTID": 32, "id": 45, "uuid": null, "nimi_et": "Kivimäe põhikooli juurdeehitis", "nimi_en": "Kivimäe primary school extension", "nimi_ru": "Здание пристройки к Кивимяэской основной школе", "kirjeldus_et": "Kivimäe põhikoolile projekteeritakse juurdeehitisi, et luua juurde uusi koolikohti ja nüüdisaegne õpikeskkond.", "kirjeldus_en": "Extensions to Kivimäe primary school are being designed to create more school places and a modern learning environment.", "kirjeldus_ru": "Проектируемая пристройка к Кивимяэской основной школе призвана увеличить количество учебных мест и создать современную учебную среду.", "kirjeldus": null }, "geometry": { "type": "Point", "coordinates": [ 24.644409449326822, 59.375325338751374 ] } },
{ "type": "Feature", "properties": { "OBJECTID": 33, "id": 46, "uuid": null, "nimi_et": "Tallinna Reaalkooli juurdeehitis (hariduskvartal)", "nimi_en": "Tallinn Secondary School of Science extension (education quarter)", "nimi_ru": "Пристройка к зданию Таллиннской реальной школы (образовательный квартал)", "kirjeldus_et": "Õppehoone juurdeehitis mahutab algklasside õpiruumid ja spordihoone ning ülelinnaliselt kasutatava loodus- ja teaduskompetentsikeskuse. Tallinna Reaalkoolist, Tallinna Inglise Kolledžist ja keskraamatukogu peamajast moodustub terviklik, mitmekesine ja jalakäijatega arvestav hariduskvartal. Uut, arhitektuurilt kõrgetasemelist õppehoonet täiendavad mitmekesised väliõppealad.", "kirjeldus_en": "An annex to the school building will house primary classrooms and a sports hall, as well as a nature and science competence centre for city-wide use. The Tallinn Secondary School of Science, Tallinn English College and the main building of the Central Library will form an integrated, diverse and pedestrian-friendly educational quarter. The new, architecturally high-level building will be complemented by a variety of outdoor learning areas.", "kirjeldus_ru": "В пристройке к учебному зданию будут располагаться помещения начальных классов и спортивное здание, а также центр естественно-научных компетенций для использования на общегородском уровне. Таллиннская реальная школа, Таллиннский английский колледж и главное здание Центральной библиотеки образуют целостный, разносторонний и удобный для пешеходов образовательный квартал. Новое учебное здание на высоком архитектурном уровне будет дополнено разнообразными площадками для обучения на открытом воздухе.", "kirjeldus": null }, "geometry": { "type": "Point", "coordinates": [ 24.748474541768829, 59.433570888026324 ] } },
{ "type": "Feature", "properties": { "OBJECTID": 34, "id": 47, "uuid": null, "nimi_et": "Pae kogukonnamaja", "nimi_en": "Pae community centre", "nimi_ru": "Общинный дом Паэ", "kirjeldus_et": "Pae kogukonnamaja luues on mõeldud igas vanuses inimestele. Siia on planeeritud raamatukogu, noortekeskus, spordisaalid, meistrikojad, sündmusruumid ja tegevusrohked välialad.", "kirjeldus_en": "The Pae community centre is designed for people of all ages. It will include a library, a youth centre, gyms, workshops, event spaces and outdoor areas rich with opportunities for various activities.", "kirjeldus_ru": "Общинный дом Паэ предназначен для людей всех возрастов. Он будет включать в себя библиотеку, молодежный центр, спортивные залы, мастерские, помещения для проведения мероприятий и уличные площадки для активных занятий.", "kirjeldus": null }, "geometry": { "type": "Point", "coordinates": [ 24.818957159359762, 59.433440278319814 ] } },
{ "type": "Feature", "properties": { "OBJECTID": 35, "id": 48, "uuid": null, "nimi_et": "Mustakivi riigigümnaasium", "nimi_en": "Mustakivi state gymnasium", "nimi_ru": "Государственная гимназия Мустакиви", "kirjeldus_et": "Mustakivi keskusalale kavandatav riigigümnaasium annab enam kui 1000 gümnasistile võimaluse omandada kvaliteetse ja mitmekesise keskhariduse. Õppe- ja spordihoone ning projekti teises etapis rajatavad teadushooned kujundavad keskusealast hariduslinnaku. Kooli välialad on avalikult kasutatavad.", "kirjeldus_en": "The planned state secondary school in the Mustakivi centre area will provide more than 1,000 secondary school pupils with the opportunity to receive a high-quality and diverse secondary education. The education and sports building and the science facilities to be built in the second phase of the project will form a central educational campus. The school's outdoor areas are open to the public.", "kirjeldus_ru": "Планируемая государственная гимназия на территории центра Мустакиви предоставит возможность более чем тысячи гимназистов получить качественное и разнообразное среднее образование. Учебно-спортивное здание, а также научные здания, которые будут построены на втором этапе проекта, превратят территорию центра в образовательный городок. Уличные площадки школы будут открыты для общественного пользования.", "kirjeldus": null }, "geometry": { "type": "Point", "coordinates": [ 24.861141515994326, 59.447442136705156 ] } },
{ "type": "Feature", "properties": { "OBJECTID": 36, "id": 49, "uuid": null, "nimi_et": "Üldhariduskool vanalinnas", "nimi_en": "School in the old town", "nimi_ru": "Общеобразовательная школа в Старом городе", "kirjeldus_et": "Endisesse regionaal- ja põllumajandusministeeriumi hoonekompleksi rajatakse tänapäevase õpikeskkonnaga piirkonnakool Kesklinna õpilastele.", "kirjeldus_en": "A district school with a modern learning environment will be established in the former Ministry of Regional Development and Agriculture building complex for secondary education students in the city centre.", "kirjeldus_ru": "В бывшем комплексе зданий Министерства регионального развития и сельского хозяйства будет создана школа с современной учебной средой для учащихся района Кесклинн.", "kirjeldus": null }, "geometry": { "type": "Point", "coordinates": [ 24.746548820599294, 59.441359677389734 ] } },
{ "type": "Feature", "properties": { "OBJECTID": 37, "id": 50, "uuid": null, "nimi_et": "Üldhariduskool Karjamaa asumis", "nimi_en": "School in the Karjamaa subdistrict", "nimi_ru": "Общеобразовательная школа в микрорайоне Карьямаа", "kirjeldus_et": "Nüüdisaegse õpikeskkonnaga piirkonnakool toob kiiresti arenevasse Põhja-Tallinna juurde koolikohti. Uus kool hakkab tegutsema sümbioosis Sõle spordikompleksiga.", "kirjeldus_en": "A district school with a modern learning environment will bring more school places to the fast-growing Põhja-Tallinn district. The new school will operate in symbiosis with the Sõle sports complex.", "kirjeldus_ru": "Районная школа с современной учебной средой позволит увеличить количество школьных мест в быстро развивающемся районе Пыхья-Таллинн. Новая школа будет работать в симбиозе со спортивным центром Сыле.", "kirjeldus": null }, "geometry": { "type": "Point", "coordinates": [ 24.713296841331157, 59.451124579084045 ] } },
{ "type": "Feature", "properties": { "OBJECTID": 38, "id": 51, "uuid": null, "nimi_et": "Puitmoodulitest lasteaed Päikene", "nimi_en": "Wooden modular kindergarten \"Päikene\"", "nimi_ru": "Деревянный модульный детский сад Päikene", "kirjeldus_et": "Puitmoodulelementidest lasteaed on nii lapse- kui ka keskkonnasõbralik ja seda on võimalik tulevikus paindlikult kohandada. Hoone arhitektuurilahendus leiti arhitektuurikonkursiga.", "kirjeldus_en": "The modular kindergarten is both child- and environment friendly and can be flexibly adapted in the future. The design for the building was conceived through an architectural competition.", "kirjeldus_ru": "Детский сад из деревянных модульных элементов безопасен для детей и окружающей среды и может быть гибко адаптирован в будущем. Архитектурное решение здания было найдено в результате архитектурного конкурса.", "kirjeldus": null }, "geometry": { "type": "Point", "coordinates": [ 24.701555084423291, 59.441804234755764 ] } },
{ "type": "Feature", "properties": { "OBJECTID": 39, "id": 52, "uuid": null, "nimi_et": "Puitmoodulitest lasteaed Pääsupesa", "nimi_en": "Wooden modular kindergarten \"Pääsupesa\"", "nimi_ru": "Деревянный модульный детский сад Pääsupesa", "kirjeldus_et": "Puitmoodulelementidest lasteaed on nii lapse- kui ka keskkonnasõbralik ja seda on võimalik tulevikus paindlikult kohandada. Hoone arhitektuurilahendus leiti arhitektuurikonkursiga.", "kirjeldus_en": "The modular kindergarten is both child- and environment friendly and can be flexibly adapted in the future. The design for the building was conceived through an architectural competition.", "kirjeldus_ru": "Детский сад из деревянных модульных элементов безопасен для детей и окружающей среды и может быть гибко адаптирован в будущем. Архитектурное решение здания было найдено в результате архитектурного конкурса.", "kirjeldus": null }, "geometry": { "type": "Point", "coordinates": [ 24.692387386181711, 59.442798650342262 ] } },
{ "type": "Feature", "properties": { "OBJECTID": 40, "id": 53, "uuid": null, "nimi_et": "Mustjõe lasteaed", "nimi_en": "Mustjõe kindergarten", "nimi_ru": "Детский сад Мустйыэ", "kirjeldus_et": "Mustjõe asumisse rajatakse uus, 12-rühmaline lasteaed.", "kirjeldus_en": "A new 12-group kindergarten will be built in the Mustjõe subdistrict.", "kirjeldus_ru": "В микрорайоне Мустйыэ будет построен новый детский сад с 12 группами.", "kirjeldus": null }, "geometry": { "type": "Point", "coordinates": [ 24.682674530936925, 59.430826316711702 ] } },
{ "type": "Feature", "properties": { "OBJECTID": 42, "id": 55, "uuid": null, "nimi_et": "Heleni kooli uus õppehoone", "nimi_en": "Tallinn Helen' School (school for the deaf) new facilities ", "nimi_ru": "Новое здание школы Heleni Kool", "kirjeldus_et": "Tallinna Heleni Kool saab uue erivajadustega lastele sobiva kooli- ja lasteaiakompleksi. Kooli- ja lasteaiahoonet täiendavad mitmekesised õuesõppealad.", "kirjeldus_en": "Tallinn Helen School is getting a new school and kindergarten complex suitable for children with special needs. The school and nursery buildings are complemented by a variety of outdoor learning areas.", "kirjeldus_ru": "Таллиннская Heleni Kool получит новый  комплекс из школы и детского сада для детей с особыми потребностями. Здания школы и детского сада дополнены разнообразными учебными площадками на открытом воздухе.", "kirjeldus": null }, "geometry": { "type": "Point", "coordinates": [ 24.699611820952939, 59.442366962371786 ] } },
{ "type": "Feature", "properties": { "OBJECTID": 43, "id": 56, "uuid": null, "nimi_et": "Lasnamäe ujula", "nimi_en": "Lasnamäe swimming sports centre", "nimi_ru": "Плавательный бассейн в Ласнамяэ", "kirjeldus_et": "Tondiraba asumisse rajatakse treeningbasseini ja suure tribüüniga ujula, mis vastab olümpianormidele ja sobib rahvusvaheliste võistluste korraldamiseks ja tipptasemel treeninguteks. Vee- ja spordikeskus on avatud ka tavakülastajale.", "kirjeldus_en": "A swimming pool with a training pool and a large grandstand will be built in the Tondiraba sub-district, which will meet Olympic standards and be suitable for international competitions and high level training. The swimming and sports centre is also open to the general public.", "kirjeldus_ru": "В микрорайоне Тондираба будет построен плавательный бассейн с тренировочным бассейном и большой трибуной, соответствующий олимпийским стандартам и подходящий для проведения международных соревнований и тренировок на высшем уровне. Водно-спортивный центр будет также открыт для широкой публики.", "kirjeldus": null }, "geometry": { "type": "Point", "coordinates": [ 24.848007314700517, 59.443930928501182 ] } },
{ "type": "Feature", "properties": { "OBJECTID": 44, "id": 57, "uuid": null, "nimi_et": "Kalamaja põhikooli laiendus", "nimi_en": "Kalamaja primary school extension", "nimi_ru": "Расширение основной школы Каламая", "kirjeldus_et": "Kalamaja põhikooli laiendusena rajatav õppehoone ja võimla toob kiiresti arenevasse Kalamaja asumisse uusi koolikohti ning muudab õpikeskkonna tänapäevaseks. Koolihoone ruumiline lahendus leitakse arhitektuurikonkursil. Kooli ja Salme kultuurikeskuse väliala seotakse tervikuks. ", "kirjeldus_en": "The new school building and gymnasium, which will be built as an extension to the Kalamaja primary school, will bring new school places to the rapidly developing Kalamaja subdistrict and serves to modernize the learning environment. The spatial solution for the school building will be found through an architectural competition. The outdoor area of the school and the Salme Cultural Centre will be integrated into a whole. ", "kirjeldus_ru": "Учебное здание и гимнастический зал, которые будут построены для расширения основной школы Каламая, обеспечат новые школьные места в быстро развивающемся микрорайоне Каламая и модернизируют учебную среду. Пространственное решение для здания школы будет найдено в ходе архитектурного конкурса. Наружная территория школы и культурного центра «Сальме» будут объединены. ", "kirjeldus": null }, "geometry": { "type": "Point", "coordinates": [ 24.728754860297443, 59.444060546440149 ] } },
{ "type": "Feature", "properties": { "OBJECTID": 48, "id": 61, "uuid": null, "nimi_et": "Astangu kohaliku kaitseala moodustamine", "nimi_en": "Creation of Astangu local conservation area", "nimi_ru": "Создание местной природоохранной зоны Астангу", "kirjeldus_et": "Astangu-Mäeküla piirkonda iseloomustab harukordne loodusväärtuste kontsentratsioon. Kaitseala loomine ja inimtegevuse suunamine tagab väärtuslike looduskoosluste, talumaastike ja militaarobjektide ning mitme kaitsealuse liigi elupaikade säilimise.", "kirjeldus_en": "The Astangu-Mäeküla area is characterised by an exceptional concentration of natural assets. The creation of the protected area and the management of human activities will ensure the conservation of valuable natural communities, farm landscapes and military sites, as well as the habitats of several protected species.", "kirjeldus_ru": "Район Астангу-Мяэкюла характеризуется исключительной концентрацией природных ценностей. Создание природоохранной зоны и регулирование деятельности человека обеспечат сохранение ценных природных сообществ, сельскохозяйственных ландшафтов и военных объектов, а также мест обитания нескольких охраняемых видов.", "kirjeldus": null }, "geometry": { "type": "Point", "coordinates": [ 24.621974567688351, 59.39708679125949 ] } },
{ "type": "Feature", "properties": { "OBJECTID": 49, "id": 62, "uuid": null, "nimi_et": "Kakumäe kohaliku kaitseala moodustamine", "nimi_en": "Creation of Kakumäe local conservation area", "nimi_ru": "Создание местной природоохранной зоны Какумяэ", "kirjeldus_et": "Kakumäe kaitsealalt leiab liigirikkad metsakooslused, mis on elupaigaks arvukatele kaitsealustele taime- ja loomaliikidele. Piki rannikut kulgeb unikaalne kambriumiajastu liivakivipaljand. Kaitseala loomise ja inimtegevuse suunamisega tagame tallinlastele võimaluse viibida ainulaadses looduskeskkonnas ka tulevikus.", "kirjeldus_en": "The Kakumäe protected area is home to species-rich forests that provide habitat for numerous protected plant and animal species. A unique Cambrian sandstone cliff runs along the coast. By creating a protected area and managing human activities, we will ensure that the people of Tallinn have the opportunity to enjoy this unique natural environment in the future.", "kirjeldus_ru": "В природоохранной зоне Какумяэ находятся богатые видами лесные сообщества, которые служат средой обитания для многочисленных охраняемых видов растений и животных. Вдоль побережья располагается уникальное обнажение песчаника кембрийского периода. Создавая природоохранную зону и регулируя деятельность человека, мы обеспечим жителям Таллинна возможность и в будущем пребывать в уникальной природной среде.", "kirjeldus": null }, "geometry": { "type": "Point", "coordinates": [ 24.584520949545766, 59.45533223667509 ] } },
{ "type": "Feature", "properties": { "OBJECTID": 50, "id": 63, "uuid": null, "nimi_et": "Kantsi tunnel", "nimi_en": "Kantsi tunnel", "nimi_ru": "Тоннель Кантси", "kirjeldus_et": "Uue raudteealuse tunneli rajamine siia on oluline nii põhja- ja läänesuunaliste ühistranspordiühenduste parandamiseks kui ka Ülemiste-Lennujaama ärilinnaku sidustamiseks Lasnamäe ja Kesklinnaga. Kantsi tunnel on vajalik täiendus Ülemiste viaduktile ja Tartu maanteele, mis aitab hajutada liiklust ning siduda rattateede võrgustiku tervikuks.", "kirjeldus_en": "The construction of a new tunnel under the railway here is important both for improving public transport connections on the north and west axis and for connecting the Ülemiste-Lennujaama business district with Lasnamäe and City Centre. The Kantsi tunnel is a necessary complement to the Ülemiste viaduct and Tartu road that will help to disperse traffic and link the network of cycle paths.", "kirjeldus_ru": "Строительство здесь нового тоннеля под железной дорогой важно как для улучшения движения общественного транспорта в северном и западном направлении, так и для связи бизнес-городка Юлемисте-Леннуяама с районами Ласнамяэ и Кесклинн. Тоннель Кантси является необходимым дополнением к виадуку Юлемисте и Тартускому шоссе, поможет рассредоточить движение и соединить сеть велосипедных дорожек в единое целое.", "kirjeldus": null }, "geometry": { "type": "Point", "coordinates": [ 24.819503457223384, 59.423618125079024 ] } }
]
}
