{
"type": "FeatureCollection",
"name": "S00-linnaosade-areng-arendusala-ulelinnaline",
"crs": { "type": "name", "properties": { "name": "urn:ogc:def:crs:OGC:1.3:CRS84" } },
"features": [
{ "type": "Feature", "properties": { "OBJECTID": 1, "id": 1, "uuid": "eqLX2AUf1ikntWzXB1yNY7", "nimi_et": "Lennujaama-Ülemiste ärilinnak ja Rail Balticu ühisterminal", "nimi_en": "Ülemiste Development Area", "nimi_ru": "Зона застройки Юлемисте", "kirjeldus_et": "Ülemiste järve ja kesklinna vahele luuakse Tallinna värav Euroopasse: laienev Tallinna lennujaam ja rahvusvaheline Rail Balticu rongiterminal. Terminalihooneid ümbritseb uuendusmeelne ja inimsõbralik äri- ja tehnoloogialinnak. Kaks rahvusvahelist väravat seob tervikuks kvaliteetne avalik ruum, mille silmapaistvaim osa on Euroopa väljak. Algab ka Ülemiste kaubajaama muutmine linnalikuks keskkonnaks. Alale on planeeritud ka perspektiivse Tallinna-Helsingi tunneli suue.", "kirjeldus_en": "A fast developing international entryway to the city and innovative business and living environment where Tallinn Airport, Rail Baltic train station and Ülemiste Smart City, as well as many shopping centres and the prospective Tallinn-Helsinki tunnel will come together. Human-scaled streets, green areas, squares, public transport, sidewalks and cycling paths will shape the area into a pleasantly cohesive space. Ülemiste Freight Station will also be given a more appropriate function.", "kirjeldus_ru": "Быстро развивающиеся международные ворота и инновационная среда для жизни и предпринимательства, куда входят аэропорт, станция ​​высокоскоростных поездов Rail Baltic, умный городок Юлемисте, различные торговые центры и перспективный туннель Таллинн – Хельсинки. За счет удобных для человека улиц, зеленых зон и площадей, общественного транспорта и велопешеходных дорожек зона станет приятным единым целым. Грузовая станция также приобретет более подходящую для района функцию." }, "geometry": { "type": "Point", "coordinates": [ 24.798662000049369, 59.422030000140417 ] } },
{ "type": "Feature", "properties": { "OBJECTID": 2, "id": 2, "uuid": "9i8TMpTJL6M75boh6zQ9j9", "nimi_et": "Paevälja arendusala", "nimi_en": "Paevälja Development Area", "nimi_ru": "Зона застройки Паэвялья", "kirjeldus_et": "Arendusalale on planeeritud Tallinna Haigla linnak. See regionaalse mõjuga tervishoiu- ja ravikeskus on linna ambitsioonikaim lähiaastate arendus. Narva maantee muutub kesklinlikuks bulvariks, mida elavdavad uued mitmekesised elu- ja ärikvartalid kodulähedaste äride ja teenustega. Hoonestust tasakaalustab kvaliteetne avalik ruum: klindipealset looduskeskkonda väärtustavad kvartalisisesed pargialad puhke- ja sportimisvõimalustega. Arendusala hoonestus moodustab ruumilise jätku Rahu bulvari äärsele hoonestusele.", "kirjeldus_en": "A new hospital district in Tallinn – a magnet with a regional impact and the largest development of the city in the last years. We are designing new residential and business districts near Narva road where there will be local shops and services and a park with recreation and sports opportunities. The development area’s buildings will be a spatial continuation of Rahu Avenue. A separate larger residential district will arise on Maarjamäe glint.", "kirjeldus_ru": "Новый больничный комплекс Таллинна, который является центром притяжения регионального значения и крупнейшей застройкой ближайших лет. Вдоль Нарвского шоссе запланировано возведение новых жилых и деловых кварталов, где вблизи домов будут находиться магазины, различные услуги, а также внутриквартальная парковая зона с местами для отдыха и возможностями для занятий спортом. Здания зоны застройки являются пространственным продолжением бульвара Раху. Особый, более крупный жилой район будет возведен на глинте Маарьямяэ." }, "geometry": { "type": "Point", "coordinates": [ 24.821360000031177, 59.449318999951281 ] } },
{ "type": "Feature", "properties": { "OBJECTID": 3, "id": 3, "uuid": "vVgGe6XUw4kCUUfh6r5FQa", "nimi_et": "Sadama arendusala", "nimi_en": "Sadama Development Area", "nimi_ru": "Зона застройки порта", "kirjeldus_et": "Linnahalli ja Vanasadama piirkonnast saab Tallinna mereäärne linnasüda: aktiivne südalinnaasum, kus paiknevad ühiskondlikud hooned, kesklinlikud äri- ja elukvartalid ning mitmekesine avatud mereäär. Siia võib rajada näiteks muuseumi avahoidla, kaasaegse kontserdimaja, haruraamatukogu ja talisupluskeskuse. Uus asum on seotud ajaloolise linnasüdamega läbi kesklinliku hoonestuse, inimmõõtmelise avaliku ruumi, uue trammiliini ja merega ristisuunaliste uute tänavasihtidega. Mereni pikeneb ka bastionivöönd.", "kirjeldus_en": "The Sadama area (port) is actively developing into an attractive subdistrict in the heart of the city with expanding passenger ports, the developing Tallinn City Hall concert and conference centre as well as business and residential quarters. The area will be connected with the sea via urban buildings, human-scaled public spaces, a new tramway and pedestrian and cyclist trails. The beach promenade, landscaped city squares and the area where the park ends and the street starts create a blue-green axis. Shops and cafés can be found on the first floors of the buildings.", "kirjeldus_ru": "Зона порта вырастет в активный микрорайон центра города с расширяющимися пассажирскими портами, реновированным как концертный и конференц-центр Горхоллом, а также жилыми и деловыми кварталами. Благодаря городским застройкам, удобному для людей общественному пространству, новой трамвайной линии и велопешеходным дорожкам район будет соединен с морем. Прибрежный променад, городские площади с зелеными насаждениями и уличные оси создадут в зоне «сине-зеленую ось», на первых этажах зданий будут располагаться магазины и кафе." }, "geometry": { "type": "Point", "coordinates": [ 24.760672716502867, 59.4444621916128 ] } },
{ "type": "Feature", "properties": { "OBJECTID": 4, "id": 4, "uuid": null, "nimi_et": "Kristiine keskuseala ja ühistranspordi sõlmjaam", "nimi_en": "Kristiine hub (centre and public transport node)", "nimi_ru": "Территория центра Kristiine и транспортно-пересадочный узел", "kirjeldus_et": "Kristiine keskusest ja selle vahetust ümbrusest areneb lähiaastatel kogu linnaosa aktiivsuskese ja ülelinnalise tähtsusega ühistranspordisõlmjaam. Kaubanduskeskus laieneb väliruumi. Keskusealale lisandub ärihooneid ning avalik ruum muutub inimsõbralikumaks. Kristiine keskuse sõlmjaamas peatuvad ida- ja läänesuunalised rongiliinid, bussiliinid ja keskuseni pikeneva Liivalaia liini trammid.", "kirjeldus_en": "In the coming years, the Kristiine Centre and its immediate surroundings will develop into a node of activity for the whole district and a public transport hub of city-wide importance. The shopping centre is expanding outdoors. Commercial buildings will be added to the central area and the public space will become more human-friendly. Eastbound and westbound train lines, bus lines and trams of the new Liivalaia line will all interconnect at the Kristiine hub.", "kirjeldus_ru": "В ближайшие годы центр Kristiine и его ближайшие окрестности станут центром активности и транспортно-пересадочным узлом общегородского значения. Торговый центр расширит свою внешнюю территорию. На территории центра появятся коммерческие здания, а общественное пространство станет более удобным для людей. В транспортно-пересадочном узле центра Kristiine будут останавливаться поезда восточного и западного направления, линейные автобусы и трамваи линии Лийвалайа, которая будет продлена до центра города." }, "geometry": { "type": "Point", "coordinates": [ 24.724669780526046, 59.426842700337126 ] } },
{ "type": "Feature", "properties": { "OBJECTID": 5, "id": 5, "uuid": "2yGgAF5yKvUvgR9FpaKE9k", "nimi_et": "Telliskivi ja Balti jaama ala", "nimi_en": "Telliskivi-Depoo Business and Creative City", "nimi_ru": "Деловой и творческий городок Теллискиви-Депоо", "kirjeldus_et": "Loomelinnaku areng jätkub: siinsed arendused on seotud kultuuri, ettevõtluse, kaubanduse, teeninduse ja majutusega. Eluhoonete kavandamisest siia hoidutakse, et kultuurielu saaks kedagi häirimata pulbitseda ka õhtutundidel.", "kirjeldus_en": "A creative hub that attracts everyone in the city and connects the Creative City and Baltic Station Market area. It is directed to creative business, entrepreneurship, trade, service industries, culture and economy. The area does not have a residential function to allow the implementation of entertainment functions such as concerts and festivals.", "kirjeldus_ru": "Привлекающий людей со всего города творческий центр, соединяющий творческий городок и зону рынка Балтийского вокзала, ориентированный на креативную экономику, предпринимательство, торговлю, обслуживание, культуру и гостиничное размещение. В квартале не предусмотрено функции постоянного жилья, поскольку предусмотрена функция организации развлекательных мероприятий, например концертов, фестивалей." }, "geometry": { "type": "Point", "coordinates": [ 24.732323999871891, 59.440427000139643 ] } },
{ "type": "Feature", "properties": { "OBJECTID": 6, "id": 16, "uuid": "qYo9ohZaUEhV1Mt2FQQKpM", "nimi_et": "Tehnikaülikooli ja Tehnopoli linnak ", "nimi_en": "Tallinn University of Technology and Tehnopol Science and Business Park", "nimi_ru": "Городок технического университета и научный парк «Технопол»", "kirjeldus_et": "Tehnikaülikooli vahetus läheduses areneb teaduse ja ettevõtluse sümbioosis kiiresti edasi Baltimaade suurim teadus- ja tehnoloogialinnak. Siin paikneb teadusele, tehnikale ja innovatsioonile pühendunud ülikool ning alustavad ja kasvavad tehnoloogiaettevõtted.", "kirjeldus_en": "A developing science and technology park for new and growing technology companies. The Baltics largest science park and magnet for technology companies are developed through the symbiosis of science and entrepreneurship.", "kirjeldus_ru": "Развивающийся научный парк и городок технологий для начинающих свою деятельность и растущих технологических предприятий. В симбиозе с наукой и предпринимательской деятельностью будет продолжаться развитие крупнейшего в Прибалтике научного парка и центра притяжения технологических предприятий." }, "geometry": { "type": "Point", "coordinates": [ 24.657350999721373, 59.398209000114413 ] } },
{ "type": "Feature", "properties": { "OBJECTID": 7, "id": 29, "uuid": "3pjwswUb8kcWAdWL51PqYm", "nimi_et": "Linlasi kutsuv vanalinn", "nimi_en": "An Inviting Old Town for City Residents", "nimi_ru": "Привлекающий горожан Старый город", "kirjeldus_et": "Ajaloolise linnasüdame elujõulisuse suurendamiseks tuleb toetada asumi püsielanikkonna kasvu ja tuua siia tagasi argine linnaelu: ärid, igapäevaelu toetavad teenused, riigi- ja kultuuriasutused ning haridushooned. Parandatakse vanalinna ligipääsetavust ning luuakse bastionivööndi parkidesse ja sisehoovidesse uusi vabaajategevus- ja viibimisvõimalusi. ", "kirjeldus_en": "The aim in Old Town is to increase the permanent population and promote various opportunities. Services and cultural establishments that support everyday life are to be improved, playgrounds in parks and courtyards as well as recreation areas and seating options will be creaated and accessibility improved.", "kirjeldus_ru": "Старый город будет развиваться с целью увеличения количества постоянного населения и содействия различным возможностям использования В Старом городе будут созданы новые поддерживающие повседневную жизнь услуги, культурные учреждения, в парках и дворах появятся новые детские площадки, зоны отдыха и места для сидения, а также будет улучшен к ним доступ." }, "geometry": { "type": "Point", "coordinates": [ 24.745036999993577, 59.437757999877235 ] } }
]
}
