<svg xmlns="http://www.w3.org/2000/svg" viewBox="0 0 716.01 143.91">
  <defs>
    <style>
      .cls-1 {
        fill: #fff;
      }
    </style>
  </defs>
  <g id="Layer_2" data-name="Layer 2">
    <path class="cls-1" d="M0,63.55V46.67C16.89,45,30.06,44,44.24,46.67,58.09,49,64.17,53,76.33,56.46h0A138.94,138.94,0,0,0,102,60.18V73.39C86.12,70,84.77,63.55,67.54,60.55,46.61,56.8,19.25,60.55,0,63.55ZM67.88,73c-23,.34-40.19,3.38-67.54,7.77V94.29a20.86,20.86,0,0,0,.34,4.39C20.6,95,37.49,92.6,44.58,91.58c20.6-3.37,42.22-6.75,57.75-4V81.45C90.51,73.35,79.33,72.67,67.88,73ZM5.05,112.88h0Zm3.39,5.05c11.49,14.18,41.88,25.66,42.89,26,1-.34,31.41-11.82,42.89-26a46.55,46.55,0,0,0,5.75-9.8,29.43,29.43,0,0,0,2-7.77c0-.67.34-1.35.34-2-3,.34-94.1,14.11-97.23,14.51A42.69,42.69,0,0,0,8.44,117.93ZM.34,20.66V31.81A119.79,119.79,0,0,1,36.81,36.2c4,1,11.82,3.37,14.86,4.39C67.54,45,89.16,45,102.33,46.67V33.5C83.76,29.78,57.08,29.44,43.23,28,30.39,26.74,20.94,23.7.34,20.66Zm51-20.6V0a184.72,184.72,0,0,0-51,6.1v5.1l102,8.77V6.16A185.1,185.1,0,0,0,51.33.06ZM168.18,61.42h8.68V24.84h13V17.4H155.23v7.44h13ZM203,28.68c9.11,0,13.76,4.65,13.76,11.35V61.42h-7.25V58.13c-1.93,2.67-5.34,4.34-10.23,4.34-6,0-11.35-2.6-11.35-9,0-7.31,6.51-9.86,13.7-11.16L209,40.9v-.75c0-3.1-2.29-4.83-5.95-4.83-4.34,0-6.57,2-9.86,5.14l-5.08-4.65C192.12,31.1,196.7,28.68,203,28.68Zm6.07,18-5.33,1.12c-4.77,1-7.94,2.11-7.94,5.08,0,2,1.8,3.17,4.84,3.17,4.09,0,8.43-2,8.43-7.51ZM232,17.4h-8.06v44H232Zm15.38,0H239.3v44h8.06Zm15.25,0h-8.06V25h8.06Zm0,12.34h-8.06V61.42h8.06ZM290,61.42h8.06V39.72c0-6.45-4-11-11.34-11a11.1,11.1,0,0,0-9.55,4.65V29.74h-7.5V61.42h8.06V42.32c0-4,2.66-6.69,6.38-6.69S290,38,290,42.14Zm23.19-19.1c0-4,2.67-6.69,6.38-6.69s5.89,2.35,5.89,6.51V61.42h8.06V39.72c0-6.45-4-11-11.34-11a11.1,11.1,0,0,0-9.55,4.65V29.74h-7.5V61.42h8.06Zm71.42,12.16H361.81c.93-3.48,4.77-5.21,8.92-7.75,7.38-4.47,14.08-7.07,14.08-16,0-6.57-5-12.52-14.76-12.52-7.5,0-12.58,3.72-16.86,10l6.14,4.34c3.84-4.84,6.88-7.19,10.91-7.19,3.59,0,6.26,2.1,6.26,5.51,0,5-5,6.82-10.91,10.42-6.08,3.72-12.53,7.44-12.53,16.86v3.29h31.56Zm21.82,8a14.38,14.38,0,0,1-13.51-8.12,31.4,31.4,0,0,1-2.92-14,31.4,31.4,0,0,1,2.92-14,15.31,15.31,0,0,1,27,0,31.4,31.4,0,0,1,2.91,14,31.4,31.4,0,0,1-2.91,14A14.39,14.39,0,0,1,406.44,62.47Zm7.94-22.13a26.59,26.59,0,0,0-1.8-10.66c-1.3-2.92-3.35-4.34-6.14-4.34s-4.83,1.42-6.13,4.34a26.59,26.59,0,0,0-1.8,10.66A26.59,26.59,0,0,0,400.31,51c1.3,2.92,3.34,4.34,6.13,4.34s4.84-1.42,6.14-4.34A26.59,26.59,0,0,0,414.38,40.34Zm30.38-4.46,11.53-9.8V19.26H428V26.2h18.23L432.67,37.67l3.66,5a13.4,13.4,0,0,1,5-.81c4.77,0,8.18,2.42,8.18,6.63s-2.85,6.82-7.75,6.82c-4,0-7.19-1.3-12-4.21l-4,5.89c6,4.09,10.6,5.45,16.24,5.45,10.48,0,15.87-7.13,15.87-14C457.9,40.84,452.32,36.19,444.76,35.88ZM480.29,34a13.22,13.22,0,0,0-8,2.29l.87-10.11h18.72V19.26H466.09l-1.86,23.31,7.38.68a9.63,9.63,0,0,1,6.51-2.41c4.58,0,7.56,2.6,7.56,7.13s-3.66,7.37-8,7.37c-4.09,0-6.94-1.48-11.9-4.52l-4.09,5.89c5.95,4,10,5.76,16.55,5.76,9.05,0,15.75-6.26,15.75-15.25C494,40.15,488.65,34,480.29,34ZM177,120.39c-9.05,0-15.07-7.44-15.07-18s5.89-18,15.44-18c3.72,0,7.25,1,12.27,5.21l3.35-4c-5.39-4.59-10-6.26-15.62-6.26-13.45,0-21.2,9.79-21.2,22.94s7.87,23.06,20.89,23.06c6.51,0,11.1-2.17,16.74-7.62l-3.54-3.85C185.73,118.16,182.26,120.39,177,120.39Zm17.42-22.13h10.23v26.16H210V98.26h10.17V93.92H194.41Zm60,10.85c0,9.73-5.64,16.11-13.45,16.11-4.65,0-8-1.73-10.11-4.89v15.25h-5.33V93.92h5v4.71c2.11-3.47,5.58-5.52,10.42-5.52C248.78,93.11,254.42,99.5,254.42,109.11Zm-5.45,0c0-6.82-3.41-11.47-8.81-11.47s-9.48,4.27-9.48,11.47,4,11.53,9.48,11.53C245.43,120.64,249,116.05,249,109.11Zm36.76-5.89v21.2H280.9v-3.78c-2,3.1-5.77,4.77-10.36,4.77-6,0-10.91-2.48-10.91-8.55,0-7.13,6.57-9.24,14.2-10.61l6.82-1.24v-1.55c0-3.84-2.91-6-7.13-6-3.91,0-6.45,1.49-10,5.15l-3.41-3c3.78-4.47,8-6.51,13.26-6.51C281.39,93.05,285.73,97.26,285.73,103.22ZM280.65,109l-5.58,1.12c-5.95,1.24-10.23,2.35-10.23,6.57,0,2.79,2.36,4.34,6.26,4.34,5.27,0,9.55-3,9.55-8ZM290,98.26h10.23v26.16h5.33V98.26h10.17V93.92H290Zm53.19,17.48,3.17,3.22c-4.47,4.78-8.31,6.33-13.27,6.33-9.3,0-15.13-6.39-15.13-15.94s5.64-16.3,14.57-16.3,13.76,5.7,13.76,14.69c0,.62-.06,1.8-.12,2.36H323.24c.31,5.64,3.23,10.72,9.86,10.72C337,120.82,339.3,119.4,343.14,115.74Zm-19.77-9.61H341c-.24-5.27-3.22-8.8-8.55-8.8C327.46,97.33,324.17,100.49,323.37,106.13ZM353,124.42h5.34V98.26h15.49V93.92H353Zm38.19-16.62c-2.79,4.16-4.83,7.51-7,11,.12-3.6.19-7.19.19-11.41V93.92h-5v30.5h5.71l9.05-13.89c2.66-4,5-7.75,7.07-11.28q-.19,5.11-.19,12.65v12.52h5V93.92h-5.76Zm33.3-13.88h13.82v30.5h-5.08v-11h-5.7l-9.37,11H412l9.8-11.22c-5.21-.87-8.62-4.47-8.62-9.55C413.14,97.76,417.73,93.92,424.49,93.92Zm.68,4.34c-4.4,0-6.82,2-6.82,5.39s2.42,5.46,6.76,5.46h8.12V98.26Zm64.54,10.85c0,9.73-5.64,16.11-13.45,16.11-4.65,0-8-1.73-10.11-4.89v15.25h-5.33V93.92h5v4.71c2.11-3.47,5.58-5.52,10.42-5.52C484.07,93.11,489.71,99.5,489.71,109.11Zm-5.46,0c0-6.82-3.41-11.47-8.8-11.47S466,101.91,466,109.11s4,11.53,9.48,11.53C480.72,120.64,484.25,116.05,484.25,109.11ZM521,103.22v21.2h-4.84v-3.78c-2,3.1-5.76,4.77-10.35,4.77-5.95,0-10.91-2.48-10.91-8.55,0-7.13,6.57-9.24,14.2-10.61l6.82-1.24v-1.55c0-3.84-2.92-6-7.13-6-3.91,0-6.45,1.49-10.05,5.15l-3.41-3c3.78-4.47,8-6.51,13.27-6.51C516.68,93.05,521,97.26,521,103.22ZM515.94,109l-5.58,1.12c-5.95,1.24-10.23,2.35-10.23,6.57,0,2.79,2.35,4.34,6.26,4.34,5.27,0,9.55-3,9.55-8Zm31.31-.43c3.34-1.24,5.2-3.54,5.2-6.88,0-5.83-5.89-8.68-12-8.68-4.78,0-8.56,1.55-12.77,4.52l2.54,3.6c3.47-2.48,6.51-3.78,10-3.78,4.4,0,6.94,1.79,6.94,4.77s-2,4.65-6.07,4.65h-5.83v4.15H541c4.72,0,7.07,1.49,7.07,4.59,0,3.29-2.79,5.39-7.68,5.39a17.57,17.57,0,0,1-11-4.4l-2.91,3.6a20.41,20.41,0,0,0,13.89,5.27c8,0,12.89-4.16,12.89-9.67C553.26,112,551,109.73,547.25,108.55Zm39.37,7.31c0,5.09-3.79,8.56-10.23,8.56H560.21V93.92h15.43c5.89,0,10.17,2.79,10.17,8a7,7,0,0,1-5.21,6.76C584.26,109.6,586.62,112.14,586.62,115.86Zm-21.15-8.92h9.43c3.9,0,5.64-1.86,5.64-4.59s-1.74-4.22-5.64-4.22h-9.43Zm15.81,8.61c0-2.79-2-4.77-6.44-4.77h-9.37v9.36H575C579.73,120.14,581.28,118.22,581.28,115.55Zm24.18-7.75c-2.79,4.16-4.83,7.51-7,11,.12-3.6.18-7.19.18-11.41V93.92h-5v30.5h5.71l9-13.89c2.66-4,5-7.75,7.07-11.28q-.19,5.11-.19,12.65v12.52h5V93.92h-5.77Zm20.34-9.54H636v26.16h5.33V98.26h10.17V93.92H625.8Zm43.09,9.54c-2.79,4.16-4.84,7.51-7,11,.13-3.6.19-7.19.19-11.41V93.92h-5v30.5h5.7l9-13.89c2.67-4,5-7.75,7.07-11.28q-.18,5.11-.19,12.65v12.52h5V93.92h-5.77ZM716,93.92v30.5h-5.09v-11h-5.7l-9.36,11h-6.2l9.79-11.22c-5.2-.87-8.61-4.47-8.61-9.55,0-5.89,4.58-9.73,11.34-9.73Zm-5.09,4.34h-8.06c-4.4,0-6.82,2-6.82,5.39s2.42,5.46,6.76,5.46h8.12Z"/>
  </g>
</svg>
