Valdkond,Sõbralik linnaruum,Loov maailmalinn,Terve Tallinn liigub,Roheline pööre,Heatahtlik kogukond,"Kodu, mis algab tänavast"
Ettevõtluskeskkond,1,3,1,2,2,1
Haridus ja noorsootöö,1,3,1,2,2,1
Keskkonnahoid,2,2,2,3,1,2
Korrakaitse,1,2,1,2,3,1
Kultuur,2,3,1,1,2,1
Sport ja liikumisharrastus,1,2,3,1,2,1
Liikuvus,3,3,3,3,1,2
Linnaplaneerimine,3,2,3,3,2,3
Linnavara,3,1,2,3,2,3
Linnamaastik,3,1,2,3,1,3
Sotsiaalhoolekanne,2,1,2,1,3,2
Tehnovõrgud,2,2,2,2,0,3
Tervis ja tervishoid,1,2,3,1,2,1
<em>Juhtimine ja tugiteenused</em>,3,3,3,3,3,3 
