{
  "name": "S43-imbala",
  "title": "Share of natural surfaces",
  "year": "2020",
  "caption": "",
  "useGrid": true,
  "maxBounds": [
    [24.4, 59.25],
    [25.145, 59.65]
  ],
  "layers": ["S43-imbala.data.json"],
  "popup": {
    "template": "<b>{{(sources.source.val * 100) | round}}%</b>"
  },
  "legend": [
    [
      {
        "text": "Share of natural surfaces"
      }
    ],
    [
      {
        "color": "rgb(5, 99, 41, 0.8)",
        "text": "90–100%"
      },
      {
        "color": "rgb(10, 114, 50, 0.8)",
        "text": "80–89%"
      },
      {
        "color": "rgb(15, 130, 59, 0.8)",
        "text": "70–79%"
      },
      {
        "color": "rgb(20, 145, 68, 0.8)",
        "text": "60–69%"
      },
      {
        "color": "rgb(25, 161, 77, 0.8)",
        "text": "50–59%"
      },
      {
        "color": "rgb(66, 178, 109, 0.8)",
        "text": "40–49%"
      },
      {
        "color": "rgb(107, 195, 140, 0.8)",
        "text": "30–39%"
      },
      {
        "color": "rgb(147, 211, 172, 0.8)",
        "text": "20–29%"
      },
      {
        "color": "rgb(188, 228, 203, 0.8)",
        "text": "10–19%"
      },
      {
        "color": "rgb(229, 245, 235, 0.8)",
        "text": "0–9%"
      }
    ]
  ]
}
