{
  "name": "S36-kinnisvara-hind",
  "title": "Средняя цена за квадратный метр жилой площади в районе",
  "year": "2019",
  "caption": "",
  "maxBounds": [
    [24.4, 59.25],
    [25.145, 59.65]
  ],
  "sources": ["S36-kinnisvara-hind.geojson"],
  "popup": {
    "template": "{{sources.source.asumi_nimi}}<br/>{% if sources.source.asumid_2019_average_price !== -1 %}<b>{{sources.source.asumid_2019_average_price | round}} €/m²</b>{% else %}Данные отсутствуют{% endif %}"
  },
  "legend": [
    [
      {
        "text": "Средняя цена за м² в районе"
      }
    ],
    [
      {
        "color": "rgb(0, 114, 206, 0.8)",
        "text": "3000+ €"
      },
      {
        "color": "rgb(94, 165, 223, 0.8)",
        "text": "2000–2999 €"
      },
      {
        "color": "rgb(195, 221, 241, 0.8)",
        "text": "1000–1999 €"
      },
      {
        "color": "rgb(222, 235, 246, 0.8)",
        "text": "0–999 €"
      },
      {
        "color": "#C4C4C4",
        "text": "Данные отсутствуют"
      }
    ]
  ]
}
