{
  "name": "S22-sundmused",
  "title": "Linnaruumis toimuvate sündmuste arv",
  "year": "2019",
  "caption": "",
  "sources": ["S22-sundmused.geojson"],
  "maxBounds": [
    [24.4, 59.25],
    [25.145, 59.65]
  ],
  "popup": {
    "template": "<b>{{sources.source.asumi_nimi}}</b><br/>{% if sources.source.count !== -1 %}Sündmuste arv: {{sources.source.count}}{% else %}Andmed puuduvad{% endif %}"
  },
  "legend": [
    [
      {
        "text": "Avalike sündmuste arv asumis aasta kohta"
      }
    ],
    [
      {
        "color": "rgb(11, 120, 208, 0.8)",
        "text": "100+"
      },
      {
        "color": "rgb(39, 136, 213, 0.8)",
        "text": "75–99"
      },
      {
        "color": "rgb(59, 146, 217, 0.8)",
        "text": "50–74"
      },
      {
        "color": "rgb(88, 162, 222, 0.8)",
        "text": "25–49"
      },
      {
        "color": "rgb(223, 236, 246, 0.8)",
        "text": "0-24"
      }
    ]
  ]
}
